module github.com/gofiber/fiber/v2

go 1.20

require (
	github.com/google/uuid v1.4.0
	github.com/mattn/go-colorable v0.1.13
	github.com/mattn/go-isatty v0.0.20
	github.com/mattn/go-runewidth v0.0.15
	github.com/tinylib/msgp v1.1.8
	github.com/valyala/bytebufferpool v1.0.0
	github.com/valyala/fasthttp v1.51.0
	golang.org/x/sys v0.14.0
)

require (
	github.com/andybalholm/brotli v1.0.5 // indirect
	github.com/klauspost/compress v1.17.0 // indirect
	github.com/philhofer/fwd v1.1.2 // indirect
	github.com/rivo/uniseg v0.2.0 // indirect
	github.com/valyala/tcplisten v1.0.0 // indirect
)
